%!PS-Adobe-3.0 EPSF-3.0
%%Creator: (MATLAB, The Mathworks, Inc. Version 9.5.0.944444 \(R2018b\). Operating System: Linux)
%%Title: ./imgs/compare3methods_690_task2_normal_v3.eps
%%CreationDate: 2018-12-07T12:34:27
%%Pages: (atend)
%%BoundingBox:    10     4   428   303
%%LanguageLevel: 3
%%EndComments
%%BeginProlog
%%BeginResource: procset (Apache XML Graphics Std ProcSet) 1.2 0
%%Version: 1.2 0
%%Copyright: (Copyright 2001-2003,2010 The Apache Software Foundation. License terms: http://www.apache.org/licenses/LICENSE-2.0)
/bd{bind def}bind def
/ld{load def}bd
/GR/grestore ld
/GS/gsave ld
/RM/rmoveto ld
/C/curveto ld
/t/show ld
/L/lineto ld
/ML/setmiterlimit ld
/CT/concat ld
/f/fill ld
/N/newpath ld
/S/stroke ld
/CC/setcmykcolor ld
/A/ashow ld
/cp/closepath ld
/RC/setrgbcolor ld
/LJ/setlinejoin ld
/GC/setgray ld
/LW/setlinewidth ld
/M/moveto ld
/re {4 2 roll M
1 index 0 rlineto
0 exch rlineto
neg 0 rlineto
cp } bd
/_ctm matrix def
/_tm matrix def
/BT { _ctm currentmatrix pop matrix _tm copy pop 0 0 moveto } bd
/ET { _ctm setmatrix } bd
/iTm { _ctm setmatrix _tm concat } bd
/Tm { _tm astore pop iTm 0 0 moveto } bd
/ux 0.0 def
/uy 0.0 def
/F {
  /Tp exch def
  /Tf exch def
  Tf findfont Tp scalefont setfont
  /cf Tf def  /cs Tp def
} bd
/ULS {currentpoint /uy exch def /ux exch def} bd
/ULE {
  /Tcx currentpoint pop def
  gsave
  newpath
  cf findfont cs scalefont dup
  /FontMatrix get 0 get /Ts exch def /FontInfo get dup
  /UnderlinePosition get Ts mul /To exch def
  /UnderlineThickness get Ts mul /Tt exch def
  ux uy To add moveto  Tcx uy To add lineto
  Tt setlinewidth stroke
  grestore
} bd
/OLE {
  /Tcx currentpoint pop def
  gsave
  newpath
  cf findfont cs scalefont dup
  /FontMatrix get 0 get /Ts exch def /FontInfo get dup
  /UnderlinePosition get Ts mul /To exch def
  /UnderlineThickness get Ts mul /Tt exch def
  ux uy To add cs add moveto Tcx uy To add cs add lineto
  Tt setlinewidth stroke
  grestore
} bd
/SOE {
  /Tcx currentpoint pop def
  gsave
  newpath
  cf findfont cs scalefont dup
  /FontMatrix get 0 get /Ts exch def /FontInfo get dup
  /UnderlinePosition get Ts mul /To exch def
  /UnderlineThickness get Ts mul /Tt exch def
  ux uy To add cs 10 mul 26 idiv add moveto Tcx uy To add cs 10 mul 26 idiv add lineto
  Tt setlinewidth stroke
  grestore
} bd
/QT {
/Y22 exch store
/X22 exch store
/Y21 exch store
/X21 exch store
currentpoint
/Y21 load 2 mul add 3 div exch
/X21 load 2 mul add 3 div exch
/X21 load 2 mul /X22 load add 3 div
/Y21 load 2 mul /Y22 load add 3 div
/X22 load /Y22 load curveto
} bd
/SSPD {
dup length /d exch dict def
{
/v exch def
/k exch def
currentpagedevice k known {
/cpdv currentpagedevice k get def
v cpdv ne {
/upd false def
/nullv v type /nulltype eq def
/nullcpdv cpdv type /nulltype eq def
nullv nullcpdv or
{
/upd true def
} {
/sametype v type cpdv type eq def
sametype {
v type /arraytype eq {
/vlen v length def
/cpdvlen cpdv length def
vlen cpdvlen eq {
0 1 vlen 1 sub {
/i exch def
/obj v i get def
/cpdobj cpdv i get def
obj cpdobj ne {
/upd true def
exit
} if
} for
} {
/upd true def
} ifelse
} {
v type /dicttype eq {
v {
/dv exch def
/dk exch def
/cpddv cpdv dk get def
dv cpddv ne {
/upd true def
exit
} if
} forall
} {
/upd true def
} ifelse
} ifelse
} if
} ifelse
upd true eq {
d k v put
} if
} if
} if
} forall
d length 0 gt {
d setpagedevice
} if
} bd
/RE { % /NewFontName [NewEncodingArray] /FontName RE -
  findfont dup length dict begin
  {
    1 index /FID ne
    {def} {pop pop} ifelse
  } forall
  /Encoding exch def
  /FontName 1 index def
  currentdict definefont pop
  end
} bind def
%%EndResource
%%BeginResource: procset (Apache XML Graphics EPS ProcSet) 1.0 0
%%Version: 1.0 0
%%Copyright: (Copyright 2002-2003 The Apache Software Foundation. License terms: http://www.apache.org/licenses/LICENSE-2.0)
/BeginEPSF { %def
/b4_Inc_state save def         % Save state for cleanup
/dict_count countdictstack def % Count objects on dict stack
/op_count count 1 sub def      % Count objects on operand stack
userdict begin                 % Push userdict on dict stack
/showpage { } def              % Redefine showpage, { } = null proc
0 setgray 0 setlinecap         % Prepare graphics state
1 setlinewidth 0 setlinejoin
10 setmiterlimit [ ] 0 setdash newpath
/languagelevel where           % If level not equal to 1 then
{pop languagelevel             % set strokeadjust and
1 ne                           % overprint to their defaults.
{false setstrokeadjust false setoverprint
} if
} if
} bd
/EndEPSF { %def
count op_count sub {pop} repeat            % Clean up stacks
countdictstack dict_count sub {end} repeat
b4_Inc_state restore
} bd
%%EndResource
%FOPBeginFontDict
%%IncludeResource: font Courier-Oblique
%%IncludeResource: font Courier-BoldOblique
%%IncludeResource: font Courier-Bold
%%IncludeResource: font ZapfDingbats
%%IncludeResource: font Symbol
%%IncludeResource: font Helvetica
%%IncludeResource: font Helvetica-Oblique
%%IncludeResource: font Helvetica-Bold
%%IncludeResource: font Helvetica-BoldOblique
%%IncludeResource: font Times-Roman
%%IncludeResource: font Times-Italic
%%IncludeResource: font Times-Bold
%%IncludeResource: font Times-BoldItalic
%%IncludeResource: font Courier
%FOPEndFontDict
%%BeginResource: encoding WinAnsiEncoding
/WinAnsiEncoding [
/.notdef /.notdef /.notdef /.notdef /.notdef
/.notdef /.notdef /.notdef /.notdef /.notdef
/.notdef /.notdef /.notdef /.notdef /.notdef
/.notdef /.notdef /.notdef /.notdef /.notdef
/.notdef /.notdef /.notdef /.notdef /.notdef
/.notdef /.notdef /.notdef /.notdef /.notdef
/.notdef /.notdef /space /exclam /quotedbl
/numbersign /dollar /percent /ampersand /quotesingle
/parenleft /parenright /asterisk /plus /comma
/hyphen /period /slash /zero /one
/two /three /four /five /six
/seven /eight /nine /colon /semicolon
/less /equal /greater /question /at
/A /B /C /D /E
/F /G /H /I /J
/K /L /M /N /O
/P /Q /R /S /T
/U /V /W /X /Y
/Z /bracketleft /backslash /bracketright /asciicircum
/underscore /quoteleft /a /b /c
/d /e /f /g /h
/i /j /k /l /m
/n /o /p /q /r
/s /t /u /v /w
/x /y /z /braceleft /bar
/braceright /asciitilde /bullet /Euro /bullet
/quotesinglbase /florin /quotedblbase /ellipsis /dagger
/daggerdbl /circumflex /perthousand /Scaron /guilsinglleft
/OE /bullet /Zcaron /bullet /bullet
/quoteleft /quoteright /quotedblleft /quotedblright /bullet
/endash /emdash /asciitilde /trademark /scaron
/guilsinglright /oe /bullet /zcaron /Ydieresis
/space /exclamdown /cent /sterling /currency
/yen /brokenbar /section /dieresis /copyright
/ordfeminine /guillemotleft /logicalnot /sfthyphen /registered
/macron /degree /plusminus /twosuperior /threesuperior
/acute /mu /paragraph /middot /cedilla
/onesuperior /ordmasculine /guillemotright /onequarter /onehalf
/threequarters /questiondown /Agrave /Aacute /Acircumflex
/Atilde /Adieresis /Aring /AE /Ccedilla
/Egrave /Eacute /Ecircumflex /Edieresis /Igrave
/Iacute /Icircumflex /Idieresis /Eth /Ntilde
/Ograve /Oacute /Ocircumflex /Otilde /Odieresis
/multiply /Oslash /Ugrave /Uacute /Ucircumflex
/Udieresis /Yacute /Thorn /germandbls /agrave
/aacute /acircumflex /atilde /adieresis /aring
/ae /ccedilla /egrave /eacute /ecircumflex
/edieresis /igrave /iacute /icircumflex /idieresis
/eth /ntilde /ograve /oacute /ocircumflex
/otilde /odieresis /divide /oslash /ugrave
/uacute /ucircumflex /udieresis /yacute /thorn
/ydieresis
] def
%%EndResource
%FOPBeginFontReencode
/Courier-Oblique findfont
dup length dict begin
  {1 index /FID ne {def} {pop pop} ifelse} forall
  /Encoding WinAnsiEncoding def
  currentdict
end
/Courier-Oblique exch definefont pop
/Courier-BoldOblique findfont
dup length dict begin
  {1 index /FID ne {def} {pop pop} ifelse} forall
  /Encoding WinAnsiEncoding def
  currentdict
end
/Courier-BoldOblique exch definefont pop
/Courier-Bold findfont
dup length dict begin
  {1 index /FID ne {def} {pop pop} ifelse} forall
  /Encoding WinAnsiEncoding def
  currentdict
end
/Courier-Bold exch definefont pop
/Helvetica findfont
dup length dict begin
  {1 index /FID ne {def} {pop pop} ifelse} forall
  /Encoding WinAnsiEncoding def
  currentdict
end
/Helvetica exch definefont pop
/Helvetica-Oblique findfont
dup length dict begin
  {1 index /FID ne {def} {pop pop} ifelse} forall
  /Encoding WinAnsiEncoding def
  currentdict
end
/Helvetica-Oblique exch definefont pop
/Helvetica-Bold findfont
dup length dict begin
  {1 index /FID ne {def} {pop pop} ifelse} forall
  /Encoding WinAnsiEncoding def
  currentdict
end
/Helvetica-Bold exch definefont pop
/Helvetica-BoldOblique findfont
dup length dict begin
  {1 index /FID ne {def} {pop pop} ifelse} forall
  /Encoding WinAnsiEncoding def
  currentdict
end
/Helvetica-BoldOblique exch definefont pop
/Times-Roman findfont
dup length dict begin
  {1 index /FID ne {def} {pop pop} ifelse} forall
  /Encoding WinAnsiEncoding def
  currentdict
end
/Times-Roman exch definefont pop
/Times-Italic findfont
dup length dict begin
  {1 index /FID ne {def} {pop pop} ifelse} forall
  /Encoding WinAnsiEncoding def
  currentdict
end
/Times-Italic exch definefont pop
/Times-Bold findfont
dup length dict begin
  {1 index /FID ne {def} {pop pop} ifelse} forall
  /Encoding WinAnsiEncoding def
  currentdict
end
/Times-Bold exch definefont pop
/Times-BoldItalic findfont
dup length dict begin
  {1 index /FID ne {def} {pop pop} ifelse} forall
  /Encoding WinAnsiEncoding def
  currentdict
end
/Times-BoldItalic exch definefont pop
/Courier findfont
dup length dict begin
  {1 index /FID ne {def} {pop pop} ifelse} forall
  /Encoding WinAnsiEncoding def
  currentdict
end
/Courier exch definefont pop
%FOPEndFontReencode
%%EndProlog
%%Page: 1 1
%%PageBoundingBox: 0 0 414 312
%%BeginPageSetup
[1 0 0 -1 0 312] CT
%%EndPageSetup
GS
[0.75 0 0 0.75 0 0] CT
1 GC
N
0 0 552 416 re
f
GR
GS
[0.75 0 0 0.75 0 0] CT
1 GC
N
0 0 552 416 re
f
GR
GS
[0.75 0 0 0.75 0 0] CT
1 GC
N
72 370 M
500 370 L
500 31 L
72 31 L
cp
f
GR
GS
[0.75 0 0 0.75 0 0] CT
0.149 GC
2 setlinecap
1 LJ
0.667 LW
N
72 370 M
500 370 L
S
GR
GS
[0.75 0 0 0.75 0 0] CT
0.149 GC
2 setlinecap
1 LJ
0.667 LW
N
72 370 M
72 365.72 L
S
GR
GS
[0.75 0 0 0.75 0 0] CT
0.149 GC
2 setlinecap
1 LJ
0.667 LW
N
119.556 370 M
119.556 365.72 L
S
GR
GS
[0.75 0 0 0.75 0 0] CT
0.149 GC
2 setlinecap
1 LJ
0.667 LW
N
167.111 370 M
167.111 365.72 L
S
GR
GS
[0.75 0 0 0.75 0 0] CT
0.149 GC
2 setlinecap
1 LJ
0.667 LW
N
214.667 370 M
214.667 365.72 L
S
GR
GS
[0.75 0 0 0.75 0 0] CT
0.149 GC
2 setlinecap
1 LJ
0.667 LW
N
262.222 370 M
262.222 365.72 L
S
GR
GS
[0.75 0 0 0.75 0 0] CT
0.149 GC
2 setlinecap
1 LJ
0.667 LW
N
309.778 370 M
309.778 365.72 L
S
GR
GS
[0.75 0 0 0.75 0 0] CT
0.149 GC
2 setlinecap
1 LJ
0.667 LW
N
357.333 370 M
357.333 365.72 L
S
GR
GS
[0.75 0 0 0.75 0 0] CT
0.149 GC
2 setlinecap
1 LJ
0.667 LW
N
404.889 370 M
404.889 365.72 L
S
GR
GS
[0.75 0 0 0.75 0 0] CT
0.149 GC
2 setlinecap
1 LJ
0.667 LW
N
452.444 370 M
452.444 365.72 L
S
GR
GS
[0.75 0 0 0.75 0 0] CT
0.149 GC
2 setlinecap
1 LJ
0.667 LW
N
500 370 M
500 365.72 L
S
GR
GS
[0.75 0 0 0.75 54 281.50001] CT
0.149 GC
/Helvetica 13.333 F
GS
[1 0 0 1 0 0] CT
-4 13 moveto 
1 -1 scale
(0) t 
GR
GR
GS
[0.75 0 0 0.75 89.66667 281.50001] CT
0.149 GC
/Helvetica 13.333 F
GS
[1 0 0 1 0 0] CT
-15 13 moveto 
1 -1 scale
(2000) t 
GR
GR
GS
[0.75 0 0 0.75 125.33334 281.50001] CT
0.149 GC
/Helvetica 13.333 F
GS
[1 0 0 1 0 0] CT
-15 13 moveto 
1 -1 scale
(4000) t 
GR
GR
GS
[0.75 0 0 0.75 161 281.50001] CT
0.149 GC
/Helvetica 13.333 F
GS
[1 0 0 1 0 0] CT
-15 13 moveto 
1 -1 scale
(6000) t 
GR
GR
GS
[0.75 0 0 0.75 196.66667 281.50001] CT
0.149 GC
/Helvetica 13.333 F
GS
[1 0 0 1 0 0] CT
-15 13 moveto 
1 -1 scale
(8000) t 
GR
GR
GS
[0.75 0 0 0.75 232.33333 281.50001] CT
0.149 GC
/Helvetica 13.333 F
GS
[1 0 0 1 0 0] CT
-19 13 moveto 
1 -1 scale
(10000) t 
GR
GR
GS
[0.75 0 0 0.75 268.00001 281.50001] CT
0.149 GC
/Helvetica 13.333 F
GS
[1 0 0 1 0 0] CT
-19 13 moveto 
1 -1 scale
(12000) t 
GR
GR
GS
[0.75 0 0 0.75 303.66666 281.50001] CT
0.149 GC
/Helvetica 13.333 F
GS
[1 0 0 1 0 0] CT
-19 13 moveto 
1 -1 scale
(14000) t 
GR
GR
GS
[0.75 0 0 0.75 339.33334 281.50001] CT
0.149 GC
/Helvetica 13.333 F
GS
[1 0 0 1 0 0] CT
-19 13 moveto 
1 -1 scale
(16000) t 
GR
GR
GS
[0.75 0 0 0.75 375 281.50001] CT
0.149 GC
/Helvetica 13.333 F
GS
[1 0 0 1 0 0] CT
-19 13 moveto 
1 -1 scale
(18000) t 
GR
GR
GS
[0.75 0 0 0.75 214.50016 295.24999] CT
0.149 GC
/Helvetica 14.667 F
GS
[1 0 0 1 0 0] CT
-26 14 moveto 
1 -1 scale
(Time [s]) t 
GR
GR
GS
[0.75 0 0 0.75 0 0] CT
0.149 GC
2 setlinecap
1 LJ
0.667 LW
N
72 370 M
72 31 L
S
GR
GS
[0.75 0 0 0.75 0 0] CT
0.149 GC
2 setlinecap
1 LJ
0.667 LW
N
72 370 M
76.28 370 L
S
GR
GS
[0.75 0 0 0.75 0 0] CT
0.149 GC
2 setlinecap
1 LJ
0.667 LW
N
72 332.333 M
76.28 332.333 L
S
GR
GS
[0.75 0 0 0.75 0 0] CT
0.149 GC
2 setlinecap
1 LJ
0.667 LW
N
72 294.667 M
76.28 294.667 L
S
GR
GS
[0.75 0 0 0.75 0 0] CT
0.149 GC
2 setlinecap
1 LJ
0.667 LW
N
72 257 M
76.28 257 L
S
GR
GS
[0.75 0 0 0.75 0 0] CT
0.149 GC
2 setlinecap
1 LJ
0.667 LW
N
72 219.333 M
76.28 219.333 L
S
GR
GS
[0.75 0 0 0.75 0 0] CT
0.149 GC
2 setlinecap
1 LJ
0.667 LW
N
72 181.667 M
76.28 181.667 L
S
GR
GS
[0.75 0 0 0.75 0 0] CT
0.149 GC
2 setlinecap
1 LJ
0.667 LW
N
72 144 M
76.28 144 L
S
GR
GS
[0.75 0 0 0.75 0 0] CT
0.149 GC
2 setlinecap
1 LJ
0.667 LW
N
72 106.333 M
76.28 106.333 L
S
GR
GS
[0.75 0 0 0.75 0 0] CT
0.149 GC
2 setlinecap
1 LJ
0.667 LW
N
72 68.667 M
76.28 68.667 L
S
GR
GS
[0.75 0 0 0.75 0 0] CT
0.149 GC
2 setlinecap
1 LJ
0.667 LW
N
72 31 M
76.28 31 L
S
GR
GS
[0.75 0 0 0.75 50 277.5] CT
0.149 GC
/Helvetica 13.333 F
GS
[1 0 0 1 0 0] CT
-8 4.5 moveto 
1 -1 scale
(8) t 
GR
GR
GS
[0.75 0 0 0.75 50 249.25001] CT
0.149 GC
/Helvetica 13.333 F
GS
[1 0 0 1 0 0] CT
-15 4.5 moveto 
1 -1 scale
(10) t 
GR
GR
GS
[0.75 0 0 0.75 50 220.99999] CT
0.149 GC
/Helvetica 13.333 F
GS
[1 0 0 1 0 0] CT
-15 4.5 moveto 
1 -1 scale
(12) t 
GR
GR
GS
[0.75 0 0 0.75 50 192.75] CT
0.149 GC
/Helvetica 13.333 F
GS
[1 0 0 1 0 0] CT
-15 4.5 moveto 
1 -1 scale
(14) t 
GR
GR
GS
[0.75 0 0 0.75 50 164.5] CT
0.149 GC
/Helvetica 13.333 F
GS
[1 0 0 1 0 0] CT
-15 4.5 moveto 
1 -1 scale
(16) t 
GR
GR
GS
[0.75 0 0 0.75 50 136.25] CT
0.149 GC
/Helvetica 13.333 F
GS
[1 0 0 1 0 0] CT
-15 4.5 moveto 
1 -1 scale
(18) t 
GR
GR
GS
[0.75 0 0 0.75 50 108] CT
0.149 GC
/Helvetica 13.333 F
GS
[1 0 0 1 0 0] CT
-15 4.5 moveto 
1 -1 scale
(20) t 
GR
GR
GS
[0.75 0 0 0.75 50 79.75] CT
0.149 GC
/Helvetica 13.333 F
GS
[1 0 0 1 0 0] CT
-15 4.5 moveto 
1 -1 scale
(22) t 
GR
GR
GS
[0.75 0 0 0.75 50 51.5] CT
0.149 GC
/Helvetica 13.333 F
GS
[1 0 0 1 0 0] CT
-15 4.5 moveto 
1 -1 scale
(24) t 
GR
GR
GS
[0.75 0 0 0.75 50 23.25] CT
0.149 GC
/Helvetica 13.333 F
GS
[1 0 0 1 0 0] CT
-15 4.5 moveto 
1 -1 scale
(26) t 
GR
GR
GS
[0 -0.75 0.75 0 35.75 150.3749] CT
0.149 GC
/Helvetica 14.667 F
GS
[1 0 0 1 0 0] CT
-52.5 -4 moveto 
1 -1 scale
(Temperature [C]) t 
GR
GR
GS
[0.75 0 0 0.75 214.50021 21.18751] CT
/Helvetica-Bold 14.667 F
GS
[1 0 0 1 0 0] CT
-272.5 -4 moveto 
1 -1 scale
(Temperature variation as a function of time for dof = 690 @ x = 0.618m and y = 0m) t 
GR
GR
GS
[0.75 0 0 0.75 0 0] CT
0 0.447 0.741 RC
1 LJ
2.667 LW
N
72 62.716 M
73.237 108.022 L
74.474 122.099 L
75.711 131.734 L
76.948 138.486 L
78.185 144.244 L
79.422 149.44 L
80.659 154.306 L
81.896 158.93 L
83.133 163.36 L
84.37 167.618 L
85.607 171.721 L
86.844 175.682 L
88.081 179.508 L
89.318 183.208 L
90.555 186.789 L
91.792 190.257 L
93.029 193.617 L
94.266 196.874 L
95.503 200.033 L
96.74 203.098 L
97.977 206.073 L
99.214 208.961 L
100.451 211.766 L
101.688 214.492 L
102.925 217.14 L
104.162 219.715 L
105.399 222.218 L
106.636 224.652 L
107.873 227.02 L
109.11 229.324 L
110.347 231.566 L
111.584 233.748 L
112.821 235.872 L
114.058 237.94 L
115.295 239.954 L
116.532 241.916 L
117.769 243.826 L
119.006 245.688 L
120.243 247.501 L
121.48 249.269 L
122.717 250.992 L
123.954 252.671 L
125.191 254.309 L
126.428 255.905 L
127.665 257.462 L
128.902 258.98 L
130.139 260.461 L
131.376 261.906 L
132.613 263.316 L
133.85 264.691 L
135.087 266.034 L
136.324 267.344 L
137.561 268.623 L
138.798 269.871 L
140.035 271.09 L
141.272 272.28 L
142.509 273.442 L
143.746 274.577 L
144.983 275.685 L
146.22 276.768 L
147.457 277.826 L
148.694 278.859 L
149.931 279.869 L
151.168 280.856 L
152.405 281.82 L
153.642 282.763 L
154.879 283.685 L
156.116 284.585 L
157.353 285.466 L
158.59 286.327 L
159.827 287.169 L
161.064 287.993 L
162.301 288.798 L
163.538 289.586 L
164.775 290.357 L
166.012 291.111 L
167.249 291.848 L
168.486 292.57 L
169.723 293.276 L
170.96 293.967 L
172.197 294.644 L
173.434 295.306 L
174.671 295.954 L
175.908 296.589 L
177.145 297.21 L
178.382 297.818 L
179.618 298.414 L
180.855 298.998 L
182.092 299.569 L
183.329 300.129 L
184.566 300.677 L
185.803 301.214 L
187.04 301.74 L
188.277 302.256 L
189.514 302.761 L
190.751 303.256 L
191.988 303.741 L
193.225 304.216 L
194.462 304.682 L
195.699 305.139 L
196.936 305.587 L
198.173 306.026 L
199.41 306.457 L
200.647 306.879 L
201.884 307.293 L
203.121 307.699 L
204.358 308.098 L
205.595 308.488 L
206.832 308.871 L
208.069 309.247 L
209.306 309.616 L
210.543 309.978 L
211.78 310.333 L
213.017 310.682 L
214.254 311.024 L
215.491 311.36 L
216.728 311.689 L
217.965 312.013 L
219.202 312.33 L
220.439 312.642 L
221.676 312.948 L
222.913 313.249 L
224.15 313.544 L
225.387 313.834 L
226.624 314.119 L
227.861 314.399 L
229.098 314.673 L
230.335 314.943 L
231.572 315.209 L
232.809 315.469 L
234.046 315.725 L
235.283 315.977 L
236.52 316.224 L
237.757 316.467 L
238.994 316.706 L
240.231 316.941 L
241.468 317.172 L
242.705 317.399 L
243.942 317.622 L
245.179 317.842 L
246.416 318.057 L
247.653 318.27 L
248.89 318.478 L
250.127 318.684 L
251.364 318.885 L
252.601 319.084 L
253.838 319.279 L
255.075 319.472 L
256.312 319.661 L
257.549 319.847 L
258.786 320.03 L
260.023 320.211 L
261.26 320.388 L
262.497 320.563 L
263.734 320.735 L
264.971 320.904 L
266.208 321.07 L
267.445 321.235 L
268.682 321.396 L
269.919 321.555 L
271.156 321.712 L
272.393 321.866 L
273.63 322.018 L
274.867 322.168 L
276.104 322.315 L
277.341 322.46 L
278.578 322.604 L
279.815 322.745 L
281.052 322.884 L
282.289 323.02 L
283.526 323.155 L
284.763 323.288 L
286 323.419 L
287.237 323.549 L
288.474 323.676 L
289.711 323.802 L
290.948 323.925 L
292.185 324.047 L
293.422 324.168 L
294.659 324.286 L
295.896 324.403 L
297.133 324.519 L
298.37 324.633 L
299.607 324.745 L
300.844 324.856 L
302.081 324.965 L
303.318 325.073 L
304.555 325.179 L
305.792 325.284 L
307.029 325.388 L
308.266 325.49 L
309.503 325.591 L
310.74 325.69 L
311.977 325.788 L
313.214 325.885 L
314.451 325.981 L
315.688 326.076 L
316.925 326.169 L
318.162 326.261 L
319.399 326.352 L
320.636 326.442 L
321.873 326.53 L
323.11 326.618 L
324.347 326.704 L
325.584 326.79 L
326.821 326.874 L
328.058 326.958 L
329.295 327.04 L
330.532 327.121 L
331.769 327.202 L
333.006 327.281 L
334.243 327.36 L
335.48 327.437 L
336.717 327.514 L
337.954 327.59 L
339.191 327.665 L
340.428 327.739 L
341.665 327.812 L
342.902 327.884 L
344.139 327.956 L
345.376 328.026 L
346.613 328.096 L
347.85 328.165 L
349.087 328.234 L
350.324 328.301 L
351.561 328.368 L
352.798 328.434 L
354.035 328.5 L
355.272 328.564 L
356.509 328.628 L
357.746 328.692 L
358.983 328.754 L
360.22 328.816 L
361.457 328.877 L
362.694 328.938 L
363.931 328.998 L
365.168 329.057 L
366.405 329.116 L
367.642 329.174 L
368.879 329.232 L
370.116 329.289 L
371.353 329.345 L
372.59 329.401 L
373.827 329.456 L
375.064 329.511 L
376.301 329.565 L
377.538 329.619 L
378.775 329.672 L
380.012 329.724 L
381.249 329.776 L
382.486 329.828 L
383.723 329.879 L
384.96 329.929 L
386.197 329.98 L
387.434 330.029 L
388.671 330.078 L
389.908 330.127 L
391.145 330.175 L
392.382 330.223 L
393.618 330.27 L
394.855 330.317 L
396.092 330.363 L
397.329 330.409 L
398.566 330.455 L
399.803 330.5 L
401.04 330.545 L
402.277 330.589 L
403.514 330.633 L
404.751 330.677 L
405.988 330.72 L
407.225 330.763 L
408.462 330.805 L
409.699 330.847 L
410.936 330.889 L
412.173 330.93 L
413.41 330.971 L
414.647 331.012 L
415.884 331.052 L
417.121 331.092 L
418.358 331.132 L
419.595 331.171 L
420.832 331.21 L
422.069 331.249 L
423.306 331.287 L
424.543 331.325 L
425.78 331.363 L
427.017 331.4 L
428.254 331.437 L
429.491 331.474 L
430.728 331.511 L
431.965 331.547 L
433.202 331.583 L
434.439 331.618 L
435.676 331.654 L
436.913 331.689 L
438.15 331.724 L
439.387 331.758 L
440.624 331.793 L
441.861 331.827 L
443.098 331.86 L
444.335 331.894 L
445.572 331.927 L
446.809 331.96 L
448.046 331.993 L
449.283 332.025 L
450.52 332.058 L
451.757 332.09 L
452.994 332.121 L
454.231 332.153 L
455.468 332.184 L
456.705 332.215 L
457.942 332.246 L
459.179 332.277 L
460.416 332.307 L
461.653 332.337 L
462.89 332.367 L
464.127 332.397 L
465.364 332.427 L
466.601 332.456 L
467.838 332.485 L
469.075 332.514 L
470.312 332.543 L
471.549 332.572 L
472.786 332.6 L
474.023 332.628 L
475.26 332.656 L
476.497 332.684 L
477.734 332.711 L
478.971 332.739 L
480.208 332.766 L
481.445 332.793 L
482.682 332.82 L
483.919 332.847 L
485.156 332.873 L
486.393 332.9 L
487.63 332.926 L
488.867 332.952 L
490.104 332.978 L
491.341 333.003 L
492.578 333.029 L
493.815 333.054 L
495.052 333.079 L
496.289 333.104 L
497.526 333.129 L
498.763 333.154 L
500 333.178 L
S
GR
GS
[0.75 0 0 0.75 0 0] CT
0.851 0.325 0.098 RC
1 LJ
2.667 LW
N
72 62.716 M
107.667 202.944 L
143.333 254.326 L
179 282.883 L
214.667 300.106 L
250.333 310.904 L
286 317.903 L
321.667 322.593 L
357.333 325.843 L
393 328.169 L
428.667 329.891 L
464.333 331.203 L
500 332.233 L
S
GR
GS
[0.75 0 0 0.75 0 0] CT
0.929 0.694 0.125 RC
1 LJ
2.667 LW
N
72 62.716 M
107.667 276.241 L
143.333 239.942 L
179 329.127 L
214.667 287.692 L
250.333 339.104 L
286 307.262 L
321.667 340.279 L
357.333 317.482 L
393 339.701 L
428.667 323.65 L
464.333 338.981 L
500 327.695 L
S
GR
GS
[0.75 0 0 0.75 0 0] CT
1 GC
N
489 92 M
489 42 L
421 42 L
421 92 L
cp
f
GR
GS
[0.75 0 0 0.75 351 38.625] CT
/Helvetica 12 F
GS
[1 0 0 1 0 0] CT
0 4.5 moveto 
1 -1 scale
(FE) t 
GR
GR
GS
[0.75 0 0 0.75 0 0] CT
0 0.447 0.741 RC
1 LJ
2.667 LW
N
425 51.5 M
465 51.5 L
S
GR
GS
[0.75 0 0 0.75 351 50.25] CT
/Helvetica 12 F
GS
[1 0 0 1 0 0] CT
0 4.5 moveto 
1 -1 scale
(BE) t 
GR
GR
GS
[0.75 0 0 0.75 0 0] CT
0.851 0.325 0.098 RC
1 LJ
2.667 LW
N
425 67 M
465 67 L
S
GR
GS
[0.75 0 0 0.75 351 61.875] CT
/Helvetica 12 F
GS
[1 0 0 1 0 0] CT
0 4.5 moveto 
1 -1 scale
(CN) t 
GR
GR
GS
[0.75 0 0 0.75 0 0] CT
0.929 0.694 0.125 RC
1 LJ
2.667 LW
N
425 82.5 M
465 82.5 L
S
GR
GS
[0.75 0 0 0.75 0 0] CT
0.149 GC
10.0 ML
0.667 LW
N
421 92 M
421 42 L
489 42 L
489 92 L
cp
S
GR
%%Trailer
%%Pages: 1
%%EOF
